C:\Users\shweta.sahni\Desktop\Shweta\KarateGit\Karate\KarateProject\src\test\java\conduitApp\ConduitTest.java
C:\Users\shweta.sahni\Desktop\Shweta\KarateGit\Karate\KarateProject\src\test\java\helpers\DBhandler.java
C:\Users\shweta.sahni\Desktop\Shweta\KarateGit\Karate\KarateProject\src\test\java\helpers\DataGenerator.java
